<?xml version="1.0" encoding="UTF-8"?>
<svg width="250px" height="32px" viewBox="0 0 250 32" version="1.1" xmlns="http://www.w3.org/2000/svg" xmlns:xlink="http://www.w3.org/1999/xlink">
    <!-- Generator: Sketch 54.1 (76490) - https://sketchapp.com -->
    <title>payl8r</title>
    <desc>Created with Sketch.</desc>
    <defs>
        <linearGradient x1="50%" y1="59.0685271%" x2="30.7287193%" y2="39.5493038%" id="linearGradient-1">
            <stop stop-color="#0CBCC6" offset="0%"></stop>
            <stop stop-color="#55D1C3" offset="100%"></stop>
        </linearGradient>
    </defs>
    <g id="a" stroke="none" stroke-width="1" fill="none" fill-rule="evenodd">
        <g id="Desktop-HD" transform="translate(-27.000000, -26.000000)">
            <g id="Header1">
                <g id="payl8r" transform="translate(27.000000, 24.000000)">
                    <path d="M45.9300799,25.8067633 L45.9300799,4.57004831 L53.426087,4.57004831 C54.5164153,4.57004831 55.6067436,4.70531401 56.4244898,5.11111111 C57.3785271,5.51690821 58.0599823,6.05797101 58.7414374,6.73429952 C59.4228926,7.41062802 59.9680568,8.08695652 60.3769299,9.03381643 C60.785803,9.84541063 60.9220941,10.7922705 60.9220941,11.7391304 C60.9220941,12.6859903 60.785803,13.6328502 60.3769299,14.4444444 C59.9680568,15.2560386 59.5591837,16.0676329 58.8777285,16.7439614 C58.1962733,17.4202899 57.5148181,17.9613527 56.5607808,18.3671498 C55.6067436,18.7729469 54.6527063,18.9082126 53.562378,18.9082126 L48.7921917,18.9082126 L48.7921917,25.6714976 L45.9300799,25.6714976 L45.9300799,25.8067633 Z M48.7921917,16.47343 L53.562378,16.47343 C54.2438332,16.47343 54.9252884,16.3381643 55.4704525,16.0676329 C56.0156167,15.7971014 56.5607808,15.52657 56.9696539,14.9855072 C57.242236,14.7149758 57.5148181,14.173913 57.7874002,13.6328502 C58.0599823,13.0917874 58.0599823,12.4154589 58.0599823,11.7391304 C58.0599823,11.0628019 57.9236912,10.5217391 57.7874002,9.98067633 C57.5148181,9.43961353 57.242236,8.89855072 56.8333629,8.49275362 C56.4244898,7.95169082 55.8793256,7.68115942 55.3341615,7.41062802 C54.7889973,7.14009662 54.1075421,7.00483092 53.426087,7.00483092 L48.6559006,7.00483092 L48.6559006,16.47343 L48.7921917,16.47343 Z M61.7398403,18.9082126 C61.7398403,17.9613527 61.8761313,17.0144928 62.2850044,16.0676329 C62.6938776,15.1207729 63.1027507,14.4444444 63.7842059,13.7681159 C64.465661,13.0917874 65.1471162,12.5507246 65.9648625,12.1449275 C66.7826087,11.7391304 67.736646,11.6038647 68.8269743,11.6038647 C70.0535936,11.6038647 71.0076309,11.8743961 71.8253771,12.4154589 C72.6431233,12.9565217 73.3245785,13.6328502 73.7334516,14.4444444 L73.7334516,12.0096618 L76.4592724,12.0096618 L76.4592724,25.8067633 L73.7334516,25.8067633 L73.7334516,23.3719807 C73.3245785,24.1835749 72.6431233,24.8599034 71.8253771,25.4009662 C71.0076309,25.942029 69.9173026,26.2125604 68.6906832,26.2125604 C67.736646,26.2125604 66.7826087,26.0772947 65.8285714,25.6714976 C65.0108252,25.2657005 64.193079,24.7246377 63.6479148,24.0483092 C62.9664596,23.3719807 62.5575865,22.5603865 62.1487134,21.7487923 C62.0124224,20.8019324 61.7398403,19.8550725 61.7398403,18.9082126 L61.7398403,18.9082126 Z M64.465661,18.9082126 C64.465661,19.5845411 64.6019521,20.2608696 64.7382431,20.8019324 C65.0108252,21.3429952 65.2834073,21.884058 65.6922804,22.2898551 C66.1011535,22.6956522 66.6463177,23.1014493 67.1914818,23.3719807 C67.736646,23.6425121 68.4181012,23.7777778 69.0995563,23.7777778 C69.7810115,23.7777778 70.4624667,23.6425121 71.0076309,23.3719807 C71.552795,23.1014493 72.0979592,22.6956522 72.5068323,22.2898551 C72.9157054,21.884058 73.1882875,21.3429952 73.4608696,20.8019324 C73.7334516,20.2608696 73.7334516,19.5845411 73.7334516,18.9082126 C73.7334516,18.2318841 73.5971606,17.5555556 73.4608696,17.0144928 C73.1882875,16.47343 72.9157054,15.9323671 72.5068323,15.52657 C72.0979592,15.1207729 71.552795,14.7149758 71.0076309,14.4444444 C70.4624667,14.173913 69.7810115,14.0386473 69.0995563,14.0386473 C68.4181012,14.0386473 67.736646,14.173913 67.1914818,14.4444444 C66.6463177,14.7149758 66.1011535,15.1207729 65.6922804,15.52657 C65.2834073,15.9323671 65.0108252,16.47343 64.7382431,17.0144928 C64.6019521,17.6908213 64.465661,18.2318841 64.465661,18.9082126 L64.465661,18.9082126 Z M79.7302573,27.5652174 C79.7302573,28.3768116 79.8665484,29.1884058 80.1391304,30 C80.4117125,30.6763285 80.8205856,31.352657 81.3657498,31.8937198 C81.9109139,32.4347826 82.5923691,32.8405797 83.4101154,33.1111111 C84.2278616,33.3816425 85.1818988,33.5169082 86.4085182,33.5169082 C87.3625555,33.5169082 88.3165927,33.3816425 89.134339,33.1111111 C89.9520852,32.8405797 90.6335404,32.4347826 91.1787045,31.8937198 C91.7238687,31.352657 92.1327418,30.6763285 92.5416149,29.7294686 C92.814197,28.9178744 93.0867791,27.8357488 93.0867791,26.6183575 L93.0867791,12.0096618 L90.3609583,12.0096618 L90.3609583,19.0434783 C90.3609583,19.7198068 90.2246673,20.2608696 90.0883762,20.8019324 C89.9520852,21.3429952 89.6795031,21.884058 89.406921,22.2898551 C89.134339,22.6956522 88.7254658,23.1014493 88.1803017,23.3719807 C87.6351375,23.6425121 87.0899734,23.7777778 86.4085182,23.7777778 C85.727063,23.7777778 85.1818988,23.6425121 84.7730257,23.3719807 C84.3641526,23.1014493 83.9552795,22.8309179 83.6826974,22.4251208 C83.4101154,22.0193237 83.2738243,21.4782609 83.1375333,20.9371981 C83.0012422,20.3961353 83.0012422,19.7198068 83.0012422,19.178744 L83.0012422,12.0096618 L80.2754215,12.0096618 L80.2754215,20.1256039 C80.2754215,21.2077295 80.4117125,22.0193237 80.5480035,22.6956522 C80.6842946,23.3719807 80.9568767,23.9130435 81.3657498,24.4541063 C81.7746229,24.9951691 82.319787,25.4009662 83.0012422,25.8067633 C83.6826974,26.0772947 84.5004437,26.2125604 85.4544809,26.2125604 C86.6811003,26.2125604 87.7714286,25.942029 88.5891748,25.4009662 C89.406921,24.8599034 90.0883762,24.1835749 90.4972493,23.3719807 L90.4972493,26.7536232 C90.4972493,28.3768116 90.2246673,29.4589372 89.5432121,30.1352657 C88.8617569,30.8115942 87.9077196,31.2173913 86.5448092,31.2173913 C85.1818988,31.2173913 84.0915705,30.9468599 83.5464064,30.2705314 C83.0012422,29.5942029 82.5923691,28.7826087 82.5923691,27.7004831 L79.7302573,27.5652174 L79.7302573,27.5652174 Z M102.763443,19.8550725 C102.763443,19.3140097 102.899734,18.7729469 103.036025,18.2318841 C103.172316,17.6908213 103.444898,17.1497585 103.71748,16.7439614 C103.990062,16.3381643 104.398935,15.9323671 104.807808,15.52657 C105.216681,15.1207729 105.761846,14.8502415 106.30701,14.7149758 C105.216681,14.3091787 104.398935,13.7681159 103.990062,12.821256 C103.581189,12.0096618 103.308607,11.0628019 103.308607,10.115942 C103.308607,9.30434783 103.444898,8.49275362 103.71748,7.81642512 C103.990062,7.14009662 104.535226,6.46376812 105.08039,5.92270531 C105.625555,5.38164251 106.30701,4.97584541 107.261047,4.70531401 C108.078793,4.43478261 109.032831,4.29951691 110.123159,4.29951691 C111.213487,4.29951691 112.167524,4.43478261 112.985271,4.70531401 C113.803017,4.97584541 114.484472,5.38164251 115.165927,5.92270531 C115.711091,6.46376812 116.256256,7.14009662 116.528838,7.81642512 C116.80142,8.49275362 116.937711,9.30434783 116.937711,10.115942 C116.937711,10.6570048 116.937711,11.0628019 116.80142,11.6038647 C116.665129,12.0096618 116.528838,12.5507246 116.256256,12.9565217 C115.983673,13.3623188 115.711091,13.7681159 115.302218,14.0386473 C114.893345,14.3091787 114.484472,14.5797101 113.939308,14.8502415 C114.484472,14.9855072 115.029636,15.2560386 115.438509,15.6618357 C115.847382,16.0676329 116.256256,16.47343 116.528838,16.8792271 C116.80142,17.2850242 117.074002,17.826087 117.210293,18.3671498 C117.346584,18.9082126 117.482875,19.4492754 117.482875,19.9903382 C117.482875,20.8019324 117.346584,21.6135266 116.937711,22.4251208 C116.665129,23.236715 116.119965,23.9130435 115.5748,24.4541063 C114.893345,24.9951691 114.21189,25.5362319 113.257853,25.8067633 C112.303815,26.0772947 111.349778,26.3478261 110.25945,26.3478261 C109.169122,26.3478261 108.078793,26.2125604 107.261047,25.8067633 C106.30701,25.5362319 105.625555,24.9951691 104.944099,24.4541063 C104.262644,23.9130435 103.853771,23.236715 103.581189,22.4251208 C103.036025,21.4782609 102.763443,20.6666667 102.763443,19.8550725 L102.763443,19.8550725 Z M105.625555,19.8550725 C105.625555,20.3961353 105.761846,20.9371981 105.898137,21.3429952 C106.034428,21.7487923 106.443301,22.1545894 106.715883,22.5603865 C107.124756,22.9661836 107.533629,23.236715 108.078793,23.3719807 C108.623957,23.6425121 109.305413,23.6425121 109.850577,23.6425121 C110.532032,23.6425121 111.213487,23.5072464 111.758651,23.3719807 C112.303815,23.236715 112.712689,22.8309179 113.121562,22.5603865 C113.530435,22.1545894 113.803017,21.7487923 113.939308,21.3429952 C114.21189,20.9371981 114.21189,20.3961353 114.21189,19.8550725 C114.21189,19.3140097 114.075599,18.9082126 113.939308,18.3671498 C113.803017,17.9613527 113.394144,17.4202899 113.121562,17.1497585 C112.712689,16.7439614 112.303815,16.47343 111.758651,16.3381643 C111.213487,16.0676329 110.532032,16.0676329 109.850577,16.0676329 C109.169122,16.0676329 108.487666,16.2028986 107.942502,16.3381643 C107.397338,16.6086957 106.988465,16.8792271 106.579592,17.1497585 C106.170719,17.5555556 105.898137,17.9613527 105.761846,18.3671498 C105.761846,18.7729469 105.625555,19.3140097 105.625555,19.8550725 L105.625555,19.8550725 Z M106.034428,10.2512077 C106.034428,11.1980676 106.443301,12.0096618 107.124756,12.6859903 C107.806211,13.3623188 108.760248,13.7681159 109.986868,13.7681159 C111.213487,13.7681159 112.167524,13.3623188 112.84898,12.6859903 C113.530435,12.0096618 113.939308,11.1980676 113.939308,10.115942 C113.939308,9.16908213 113.530435,8.35748792 112.84898,7.68115942 C112.167524,7.00483092 111.213487,6.59903382 109.986868,6.59903382 C108.760248,6.59903382 107.806211,7.00483092 107.124756,7.68115942 C106.443301,8.35748792 106.034428,9.30434783 106.034428,10.2512077 L106.034428,10.2512077 Z M121.980479,25.6714976 L121.980479,19.5845411 C121.980479,17.9613527 122.389352,16.6086957 123.070807,15.6618357 C123.888554,14.5797101 125.115173,14.173913 126.750665,14.173913 C126.886957,14.173913 127.159539,14.173913 127.29583,14.173913 C127.432121,14.173913 127.704703,14.173913 127.977285,14.3091787 L127.977285,11.8743961 C127.568412,11.7391304 127.159539,11.6038647 126.750665,11.6038647 C125.796628,11.6038647 124.842591,11.8743961 123.888554,12.4154589 C123.070807,12.9565217 122.389352,13.6328502 121.980479,14.5797101 L121.980479,11.8743961 L119.254658,11.8743961 L119.254658,25.6714976 L121.980479,25.6714976 Z M101.536823,23.7777778 L100.173913,23.7777778 C98.6747116,23.7777778 97.9932564,22.9661836 97.9932564,21.3429952 L97.9932564,2 L95.5400177,2 L95.5400177,21.4782609 C95.5400177,22.8309179 95.9488909,23.9130435 96.6303461,24.589372 C97.3118012,25.4009662 98.4021295,25.8067633 99.7650399,25.8067633 L101.536823,25.8067633 C101.536823,25.8067633 101.536823,23.7777778 101.536823,23.7777778 Z" id="XMLID_315_" fill="#0CBCC6" fill-rule="nonzero"></path>
                    <text id=".Guidelines" font-family="Lato-Regular, Lato" font-size="26" font-weight="normal" fill="#000000">
                        <tspan x="126" y="26">.Guidelines</tspan>
                    </text>
                    <path d="M38.8429459,15.2560386 C38.8429459,21.3429952 33.8001775,26.3478261 27.6670807,26.3478261 C24.94126,26.3478261 22.4880213,25.4009662 20.5799468,23.9130435 C21.261402,23.3719807 22.7606034,22.0193237 23.5783496,18.9082126 C24.5323869,19.9903382 26.0315883,20.8019324 27.6670807,20.8019324 C30.6654836,20.8019324 33.1187223,18.3671498 33.1187223,15.3913043 C33.1187223,12.4154589 30.6654836,9.98067633 27.6670807,9.98067633 C24.6686779,9.98067633 22.2154392,12.4154589 22.2154392,15.3913043 C22.2154392,15.3913043 22.2154392,15.7971014 22.0791482,16.47343 C21.9428571,17.826087 21.533984,19.178744 20.9888199,20.3961353 C20.5799468,21.2077295 20.0347826,22.0193237 19.3533274,22.6956522 C17.4452529,24.9951691 14.44685,26.3478261 11.1758651,26.3478261 C5.04276841,26.3478261 0,21.4782609 0,15.2560386 C0,9.16908213 5.04276841,4.16425121 11.1758651,4.16425121 C13.6291038,4.16425121 15.9460515,4.97584541 17.854126,6.32850242 C16.0823425,7.81642512 15.2645963,9.57487923 14.9920142,11.3333333 C14.0379769,10.3864734 12.6750665,9.84541063 11.3121562,9.84541063 C8.31375333,9.84541063 5.86051464,12.2801932 5.86051464,15.2560386 C5.86051464,18.2318841 8.31375333,20.6666667 11.3121562,20.6666667 C14.310559,20.6666667 16.7637977,18.2318841 16.7637977,15.2560386 C16.7637977,15.2560386 16.7637977,15.2560386 16.7637977,15.1207729 L16.7637977,15.1207729 C16.7637977,13.4975845 17.1726708,12.1449275 17.5815439,10.9275362 C17.5815439,10.7922705 17.717835,10.7922705 17.717835,10.6570048 L17.717835,10.6570048 C17.990417,9.98067633 18.3992902,9.43961353 18.8081633,8.76328502 C19.2170364,8.22222222 19.4896185,7.95169082 19.6259095,7.81642512 L19.6259095,7.81642512 C21.6702751,5.51690821 24.6686779,4.16425121 27.9396628,4.16425121 C33.9364685,4.29951691 38.8429459,9.16908213 38.8429459,15.2560386 Z" id="XMLID_315_-path" fill="url(#linearGradient-1)" fill-rule="nonzero"></path>
                </g>
            </g>
        </g>
    </g>
</svg>